{
  "id": "78cd87e4-f762-4c4a-a931-e43deffae70e",
  "name": "Submit EM Prelim Valuation Data",
  "form": "55be1929-69cd-4e7c-8c50-c2d708b84d44",
  "active": true,
  "workflowTypeId": "1ca476c0-141c-4824-a7bd-8bb7716c799a",
  "executesOn": "Submitted",
  "settings": {
    "Action": "Both",
    "Email": "russell@foxfarm.co.za",
    "Template": "test",
    "HiQPDFSerialNumber": null,
    "SenderEmail": "russell@bluegrass.com",
    "Subject": "Prelim Valuation result",
    "AttachmentName": "report.pdf",
    "Message": "here is your report"
  },
  "sortOrder": 0
}